Models
…
First we split the data into train and test set. This allows us to get a more accurate sense of how the model will perform on unseen data. The folds used for cross-validation in tuning model parameters is set up as well. Using 5-fold due to run-time of the random-forest.

Model recipe

model_recipe <- recipe(Diabetes_binary ~ BMI + Age + GenHlth + count_common + count_rare, data = data_train) |>
  step_mutate(
    GenHlth = factor(GenHlth, ordered = TRUE),
    Age = factor(Age, ordered = TRUE)
  )

model_recipe |> prep() |> bake(new_data = data_train)

# A tibble: 177,575 × 6
     BMI Age   GenHlth   count_common count_rare Diabetes_binary
   <dbl> <ord> <ord>            <dbl>      <dbl> <fct>          
 1    40 60-64 Poor                 4          1 No             
 2    25 50-54 Good                 2          0 No             
 3    28 60-64 Poor                 3          1 No             
 4    27 70-74 Very Good            2          1 No             
 5    24 70-74 Very Good            3          1 No             
 6    30 60-64 Good                 2          1 No             
 7    25 70-74 Good                 5          1 No             
 8    24 55-59 Very Good            0          1 No             
 9    34 65-69 Good                 4          1 No             
10    26 50-54 Good                 1          1 No             
# ℹ 177,565 more rows
…
